0 0.51875 0.8826388888888889 0.065625 0.08194444444444444
1 0.812109375 0.7583333333333333 0.06015625 0.05555555555555555
1 0.97109375 0.5284722222222222 0.0515625 0.04027777777777778
1 0.681640625 0.4444444444444444 0.02109375 0.03611111111111111
1 0.810546875 0.37222222222222223 0.01953125 0.025
